Chapter 16 Correlation coefficients | Core Statistics in R
…
16.4 Data and hypotheses

We will use the USArrests dataset for this example. This rather bleak dataset contains statistics in arrests per 100,000 residents for assault, murder and robbery in each of the 50 US states in 1973, alongside the proportion of the population who lived in urban areas at that time. USArrests is a data frame with 50 observations of five variables: state, murder, assault, urban_pop and robbery.

The data are stored in the file data/tidy/CS3-usarrests.csv.

First we read in the data:

# load the data
USArrests <- read_csv("data/tidy/CS3-usarrests.csv")

# have a look at the data
USArrests

## # A tibble: 50 × 5
##    state       murder assault urban_pop robbery
##    <chr>        <dbl>   <dbl>     <dbl>   <dbl>
##  1 Alabama       13.2     236        58    21.2
##  2 Alaska        10       263        48    44.5
##  3 Arizona        8.1     294        80    31  
##  4 Arkansas       8.8     190        50    19.5
##  5 California     9       276        91    40.6
##  6 Colorado       7.9     204        78    38.7
##  7 Connecticut    3.3     110        77    11.1
##  8 Delaware       5.9     238        72    15.8
##  9 Florida       15.4     335        80    31.9
## 10 Georgia       17.4     211        60    25.8
## # … with 40 more rows
…
not correlated at all

Calculate Pearson’s r for all variable pairs and see how well you were able to identify correlation visually.

Answer

16.9.1 Read in the data

USAstate <- read_csv("data/tidy/CS3-statedata.csv")

# have a look at the data
USAstate

## # A tibble: 50 × 9
##    state       population income illiteracy life_exp murder hs_grad frost   area
##    <chr>            <dbl>  <dbl>      <dbl>    <dbl>  <dbl>   <dbl> <dbl>  <dbl>
##  1 Alabama           3615   3624        2.1     69.0   15.1    41.3    20  50708
##  2 Alaska             365   6315        1.5     69.3   11.3    66.7   152 566432
##  3 Arizona           2212   4530        1.8     70.6    7.8    58.1    15 113417
##  4 Arkansas          2110   3378        1.9     70.7   10.1    39.9    65  51945
##  5 California       21198   5114        1.1     71.7   10.3    62.6    20 156361
##  6 Colorado          2541   4884        0.7     72.1    6.8    63.9   166 103766
##  7 Connecticut       3100   5348        1.1     72.5    3.1    56     139   4862
##  8 Delaware           579   4809        0.9     70.1    6.2    54.6   103   1982
##  9 Florida           8277   4815        1.3     70.7   10.7    52.6    11  54090
## 10 Georgia           4931   4091        2       68.5   13.9    40.6    60  58073
## # … with 40 more rows
…
16.9.3 Calculate the correlation coefficients

To get the correlation coefficients in a format that allows us to manipulate it, we use the cor_test() function. This does something similar to the cor_mat() function - it calculates the pairwise correlation coefficients. However, it outputs the results in a table format, instead of a matrix.

# calculate Pearson's correlation coefficients
USAstate %>% 
  column_to_rownames(var = "state") %>%
  cor_test(method = "pearson")

## # A tibble: 64 × 8
##    var1       var2          cor     statistic      p conf.low conf.high method 
##    <chr>      <chr>       <dbl>         <dbl>  <dbl>    <dbl>     <dbl> <chr>  
##  1 population population  1           Inf     0        1         1      Pearson
##  2 population income      0.21          1.47  0.147   -0.0744    0.460  Pearson
##  3 population illiteracy  0.11          0.750 0.457   -0.176     0.375  Pearson
##  4 population life_exp   -0.068        -0.473 0.639   -0.340     0.214  Pearson
##  5 population murder      0.34          2.54  0.0146   0.0722    0.568  Pearson
##  6 population hs_grad    -0.098        -0.686 0.496   -0.367     0.185  Pearson
##  7 population frost      -0.33         -2.44  0.0184  -0.559    -0.0593 Pearson
##  8 population area        0.023         0.156 0.877   -0.257     0.299  Pearson
##  9 income     population  0.21          1.47  0.147   -0.0744    0.460  Pearson
## 10 income     income      1     464943848.    0        1         1      Pearson
## # … with 54 more rows
…
# have a look at the ouput
USAstate_cor

## # A tibble: 28 × 8
##    var1       var2         cor statistic        p conf.low conf.high method 
##    <chr>      <chr>      <dbl>     <dbl>    <dbl>    <dbl>     <dbl> <chr>  
##  1 life_exp   murder     -0.78    -8.66  2.26e-11   -0.870   -0.642  Pearson
##  2 illiteracy frost      -0.67    -6.29  9.16e- 8   -0.801   -0.484  Pearson
##  3 illiteracy hs_grad    -0.66    -6.04  2.17e- 7   -0.791   -0.464  Pearson
##  4 illiteracy life_exp   -0.59    -5.04  6.97e- 6   -0.745   -0.371  Pearson
##  5 murder     frost      -0.54    -4.43  5.4 e- 5   -0.711   -0.307  Pearson
##  6 murder     hs_grad    -0.49    -3.87  3.25e- 4   -0.675   -0.243  Pearson
##  7 income     illiteracy -0.44    -3.37  1.51e- 3   -0.638   -0.181  Pearson
##  8 population frost      -0.33    -2.44  1.84e- 2   -0.559   -0.0593 Pearson
##  9 income     murder     -0.23    -1.64  1.08e- 1   -0.478    0.0516 Pearson
## 10 life_exp   area       -0.11    -0.748 4.58e- 1   -0.374    0.176  Pearson
## # … with 18 more rows
…
