Chapter 8 Paired two-sample t-test | Core Statistics in R
…
We use a paired test because each data point in the first sample can be linked to another data point in the second sample by a connecting factor

We’re using a t-test because we’re assuming that the parent populations are normal and have equal variance (We’ll check this in a bit)

The data are stored in a tidy format in the file data/tidy/CS1-twopaired.csv.
Read this into R:

# load the data
cortisol <- read_csv("data/tidy/CS1-twopaired.csv")

# have a look at the data
cortisol

## # A tibble: 40 × 3
##    patient_id time    cortisol
##         <dbl> <chr>      <dbl>
##  1          1 morning     311.
##  2          2 morning     146.
##  3          3 morning     297 
##  4          4 morning     271.
##  5          5 morning     268.
##  6          6 morning     264.
##  7          7 morning     358.
##  8          8 morning     316.
##  9          9 morning     336.
## 10         10 morning     221.
## # … with 30 more rows
…
