…
We then read in the data and create a vector containing the data.


```r
# import the data
fishlengthDF <- read_csv("data/tidy/CS1-onesample.csv")

fishlengthDF
```

```
## # A tibble: 29 × 3
##       id river   length
##    <dbl> <chr>    <dbl>
##  1     1 Guanapo   19.1
##  2     2 Guanapo   23.3
##  3     3 Guanapo   18.2
##  4     4 Guanapo   16.4
##  5     5 Guanapo   19.7
##  6     6 Guanapo   16.6
##  7     7 Guanapo   17.5
##  8     8 Guanapo   19.9
##  9     9 Guanapo   19.1
## 10    10 Guanapo   18.8
## # … with 19 more rows
```
…
