Chapter 6 Student’s t-test | Core Statistics in R
…
We use a two-tailed t-test because we want to know if our data suggest that the true (population) means are different from one another rather than that one mean is specifically bigger or smaller than the other.

We’re using Student’s t-test because the sample sizes are big and because we’re assuming that the parent populations have equal variance (We can check this later).

The data are stored in the file data/tidy/CS1-twosample.csv.

Let’s read in the data and have a quick look at the first rows to see how the data is structured.

tidyverse

rivers <- read_csv("data/tidy/CS1-twosample.csv")

rivers

## # A tibble: 68 × 2
##    river   length
##    <chr>    <dbl>
##  1 Guanapo   19.1
##  2 Guanapo   23.3
##  3 Guanapo   18.2
##  4 Guanapo   16.4
##  5 Guanapo   19.7
##  6 Guanapo   16.6
##  7 Guanapo   17.5
##  8 Guanapo   19.9
##  9 Guanapo   19.1
## 10 Guanapo   18.8
## # … with 58 more rows
…
