…
Let's read in the data and have a quick look at the first rows to see how the data is structured.

::::: {.panelset}
::: {.panel}
[tidyverse]{.panel-name}


```r
rivers <- read_csv("data/tidy/CS1-twosample.csv")

rivers
```

```
## # A tibble: 68 × 2
##    river   length
##    <chr>    <dbl>
##  1 Guanapo   19.1
##  2 Guanapo   23.3
##  3 Guanapo   18.2
##  4 Guanapo   16.4
##  5 Guanapo   19.7
##  6 Guanapo   16.6
##  7 Guanapo   17.5
##  8 Guanapo   19.9
##  9 Guanapo   19.1
## 10 Guanapo   18.8
## # … with 58 more rows
```
…
