Core statistics - Paired t-test
…
Rows: 40 Columns: 3
── Column specification ────────────────────────────────────────────────────────
Delimiter: ","
chr (1): time
dbl (2): patient_id, cortisol

ℹ Use `spec()` to retrieve the full column specification for this data.
ℹ Specify the column types or set `show_col_types = FALSE` to quiet this message.

# have a look at the data
cortisol

# A tibble: 40 × 3
   patient_id time    cortisol
        <dbl> <chr>      <dbl>
 1          1 morning     311.
 2          2 morning     146.
 3          3 morning     297 
 4          4 morning     271.
 5          5 morning     268.
 6          6 morning     264.
 7          7 morning     358.
 8          8 morning     316.
 9          9 morning     336.
10         10 morning     221.
# … with 30 more rows
…
