Chapter 12 ANOVA | Core Statistics in R
…
Each group is a random sample of 20 points from a normal distribution with variance 1. Groups 1 and 2 come from a parent population with mean 0 whereas group 3 come from a parent population with mean 2. The data clearly satisfy the assumptions of an ANOVA test.

12.9.1 Read in the data and plot

# load the data
tukey <- read_csv("data/tidy/CS2-tukey.csv")

# have a look at the data
tukey

## # A tibble: 60 × 3
##       id response group  
##    <dbl>    <dbl> <chr>  
##  1     1    1.58  sample1
##  2     2    0.380 sample1
##  3     3   -0.997 sample1
##  4     4   -0.771 sample1
##  5     5    0.169 sample1
##  6     6   -0.698 sample1
##  7     7   -0.167 sample1
##  8     8    1.38  sample1
##  9     9   -0.839 sample1
## 10    10   -1.05  sample1
## # … with 50 more rows
…
