Core statistics - ANOVA
…
Summarise and visualise

tidyverse
R

First we read in the data.

# load data
oystercatcher <- read_csv("data/CS2-oystercatcher-feeding.csv")

# and have a look
oystercatcher

# A tibble: 120 × 2
   site    feeding
   <chr>     <dbl>
 1 exposed    12.2
 2 exposed    13.1
 3 exposed    17.9
 4 exposed    13.9
 5 exposed    14.1
 6 exposed    18.4
 7 exposed    15.0
 8 exposed    10.3
 9 exposed    11.8
10 exposed    12.5
# … with 110 more rows
…
