…
Read in the data and inspect it:


```r
# read in the data
treelight <- read_csv("data/tidy/CS4-treelight.csv")

# inspect the data
treelight
```

```
## # A tibble: 23 × 4
##       id light depth species
##    <dbl> <dbl> <dbl> <chr>  
##  1     1 4106.  1    Conifer
##  2     2 4934.  1.75 Conifer
##  3     3 4417.  2.5  Conifer
##  4     4 4529.  3.25 Conifer
##  5     5 3443.  4    Conifer
##  6     6 4640.  4.75 Conifer
##  7     7 3082.  5.5  Conifer
##  8     8 2368.  6.25 Conifer
##  9     9 2777.  7    Conifer
## 10    10 2419.  7.75 Conifer
## # … with 13 more rows
```
…
```r
# define the model without interaction term
lm_additive <- lm(light ~ species + depth,
                  data = treelight)

# load the broom package
library(broom)

# augment the model
lm_additive %>% augment()
```

```
## # A tibble: 23 × 9
##    light species depth .fitted .resid   .hat .sigma .cooksd .std.resid
##    <dbl> <chr>   <dbl>   <dbl>  <dbl>  <dbl>  <dbl>   <dbl>      <dbl>
##  1 4106. Conifer  1      4587.  -481. 0.191    531. 0.0799      -1.01 
##  2 4934. Conifer  1.75   4390.   544. 0.156    528. 0.0766       1.11 
##  3 4417. Conifer  2.5    4194.   223. 0.128    542. 0.00985      0.449
##  4 4529. Conifer  3.25   3997.   532. 0.105    530. 0.0440       1.06 
##  5 3443. Conifer  4      3800.  -358. 0.0896   538. 0.0163      -0.706
##  6 4640. Conifer  4.75   3604.  1037. 0.0801   486. 0.120        2.03 
##  7 3082. Conifer  5.5    3407.  -325. 0.0769   540. 0.0113      -0.637
##  8 2368. Conifer  6.25   3210.  -842. 0.0801   507. 0.0793      -1.65 
##  9 2777. Conifer  7      3014.  -237. 0.0896   542. 0.00719     -0.468
## 10 2419. Conifer  7.75   2817.  -398. 0.105    537. 0.0247      -0.792
## # … with 13 more rows
```
…
