…
```r
# have a quick look at the data
tulip
```

```
## # A tibble: 27 × 3
##    water shade blooms
##    <dbl> <dbl>  <dbl>
##  1     1     1    0  
##  2     1     2    0  
##  3     1     3  111. 
##  4     2     1  183. 
##  5     2     2   59.2
##  6     2     3   76.8
##  7     3     1  225. 
##  8     3     2   83.8
##  9     3     3  135. 
## 10     1     1   80.1
## # … with 17 more rows
```
…
