8 Kruskal-Wallis
…
8.4 Summarise and visualise

R

Python

First we read the data in:

spidermonkey <- read_csv("data/CS2-spidermonkey.csv")

# look at the data
spidermonkey

# A tibble: 21 × 3
      id aggression familiarity
   <dbl>      <dbl> <chr>      
 1     1        0.2 high       
 2     2        0.1 high       
 3     3        0.4 high       
 4     4        0.8 high       
 5     5        0.3 high       
 6     6        0.5 high       
 7     7        0.2 high       
 8     8        0.5 low        
 9     9        0.4 low        
10    10        0.3 low        
# ℹ 11 more rows
…
