7 ANOVA
…
7.4 Summarise and visualise

R
Python

First we read in the data.

# load data
oystercatcher <- read_csv("data/CS2-oystercatcher-feeding.csv")

# and have a look
oystercatcher

# A tibble: 120 × 2
   site    feeding
   <chr>     <dbl>
 1 exposed    12.2
 2 exposed    13.1
 3 exposed    17.9
 4 exposed    13.9
 5 exposed    14.1
 6 exposed    18.4
 7 exposed    15.0
 8 exposed    10.3
 9 exposed    11.8
10 exposed    12.5
# ℹ 110 more rows
…
Rows: 60 Columns: 2
── Column specification ────────────────────────────────────────────────────────
Delimiter: ","
chr (1): group
dbl (1): response

ℹ Use `spec()` to retrieve the full column specification for this data.
ℹ Specify the column types or set `show_col_types = FALSE` to quiet this message.

# have a look at the data
tukey

# A tibble: 60 × 2
   response group  
      <dbl> <chr>  
 1    1.58  sample1
 2    0.380 sample1
 3   -0.997 sample1
 4   -0.771 sample1
 5    0.169 sample1
 6   -0.698 sample1
 7   -0.167 sample1
 8    1.38  sample1
 9   -0.839 sample1
10   -1.05  sample1
# ℹ 50 more rows
…
