Correlations
…
Summarise and visualise

First, we load the data:

tidyverse
R
Python

# load the data
USArrests <- read_csv("data/CS3-usarrests.csv")

# have a look at the data
USArrests

# A tibble: 50 × 5
   state       murder assault urban_pop robbery
   <chr>        <dbl>   <dbl>     <dbl>   <dbl>
 1 Alabama       13.2     236        58    21.2
 2 Alaska        10       263        48    44.5
 3 Arizona        8.1     294        80    31  
 4 Arkansas       8.8     190        50    19.5
 5 California     9       276        91    40.6
 6 Colorado       7.9     204        78    38.7
 7 Connecticut    3.3     110        77    11.1
 8 Delaware       5.9     238        72    15.8
 9 Florida       15.4     335        80    31.9
10 Georgia       17.4     211        60    25.8
# … with 40 more rows
…
Answer

Visually determining the most negative/positively and uncorrelated pairs of variables:

tidyverse
R
Python

USAstate <- read_csv("data/CS3-statedata.csv")

# have a look at the data
USAstate

# A tibble: 50 × 9
   state       population income illiteracy life_exp murder hs_grad frost   area
   <chr>            <dbl>  <dbl>      <dbl>    <dbl>  <dbl>   <dbl> <dbl>  <dbl>
 1 Alabama           3615   3624        2.1     69.0   15.1    41.3    20  50708
 2 Alaska             365   6315        1.5     69.3   11.3    66.7   152 566432
 3 Arizona           2212   4530        1.8     70.6    7.8    58.1    15 113417
 4 Arkansas          2110   3378        1.9     70.7   10.1    39.9    65  51945
 5 California       21198   5114        1.1     71.7   10.3    62.6    20 156361
 6 Colorado          2541   4884        0.7     72.1    6.8    63.9   166 103766
 7 Connecticut       3100   5348        1.1     72.5    3.1    56     139   4862
 8 Delaware           579   4809        0.9     70.1    6.2    54.6   103   1982
 9 Florida           8277   4815        1.3     70.7   10.7    52.6    11  54090
10 Georgia           4931   4091        2       68.5   13.9    40.6    60  58073
# … with 40 more rows
…
